…
    ##            used  (Mb) gc trigger   (Mb)  max used   (Mb)
    ## Ncells  5061033 270.3   14706428  785.5  14706428  785.5
    ## Vcells 65798819 502.1  137971356 1052.7 137856919 1051.8

## Subset two workgroups for analysis

``` r
wg163 = applications[substr(applications$examiner_art_unit, 1,3)==163,]
wg176 = applications[substr(applications$examiner_art_unit, 1,3)==176,]

wg163
```

    ## # A tibble: 90,860 x 21
    ##    application_number filing_date examiner_name_last examiner_name_first
    ##    <chr>              <date>      <chr>              <chr>              
    ##  1 08776818           2000-02-04  STRZELECKA         TERESA             
    ##  2 08973360           2000-02-09  LI                 QIAN               
    ##  3 09011075           2000-05-03  FORMAN             BETTY              
    ##  4 09077619           2000-03-31  STRZELECKA         TERESA             
    ##  5 09142080           2000-05-11  FREDMAN            JEFFREY            
    ##  6 09142314           2000-06-01  SISSON             BRADLEY            
    ##  7 09171671           2000-05-01  WESSENDORF         TERESA             
    ##  8 09202838           2000-01-21  ZHOU               SHUBO              
    ##  9 09202969           2003-11-03  LIU                SUE                
    ## 10 09242244           2000-02-29  WOITACH            JOSEPH             
    ## # ... with 90,850 more rows, and 17 more variables: examiner_name_middle <chr>,
    ## #   examiner_id <dbl>, examiner_art_unit <dbl>, uspc_class <chr>,
    ## #   uspc_subclass <chr>, patent_number <chr>, patent_issue_date <date>,
    ## #   abandon_date <date>, disposal_type <chr>, appl_status_code <dbl>,
    ## #   appl_status_date <chr>, tc <dbl>, gender <chr>, race <chr>,
    ## #   earliest_date <date>, latest_date <date>, tenure_days <dbl>
…
Interestingly we do seem to have several instances of an examiner
leaving the confines of their workgroup and seeking advice from the
other (see the small components on the outer edges with both blue and
black nodes).

When we explore the centralities data frame, we also see there are two
nodes with much higher degree than the rest, examiner 72253 and examiner
84157. Who are these people?

``` r
applications[applications$examiner_id==72253,]
```

    ## # A tibble: 9,628 x 21
    ##    application_number filing_date examiner_name_last examiner_name_first
    ##    <chr>              <date>      <chr>              <chr>              
    ##  1 <NA>               NA          <NA>               <NA>               
    ##  2 09242244           2000-02-29  WOITACH            JOSEPH             
    ##  3 09402130           2000-02-02  WOITACH            JOSEPH             
    ##  4 09402527           2000-01-03  WOITACH            JOSEPH             
    ##  5 09403707           2000-03-17  WOITACH            JOSEPH             
    ##  6 09423935           2000-03-13  WOITACH            JOSEPH             
    ##  7 09446717           2000-04-13  WOITACH            JOSEPH             
    ##  8 <NA>               NA          <NA>               <NA>               
    ##  9 09463276           2000-05-12  WOITACH            JOSEPH             
    ## 10 <NA>               NA          <NA>               <NA>               
    ## # ... with 9,618 more rows, and 17 more variables: examiner_name_middle <chr>,
    ## #   examiner_id <dbl>, examiner_art_unit <dbl>, uspc_class <chr>,
    ## #   uspc_subclass <chr>, patent_number <chr>, patent_issue_date <date>,
    ## #   abandon_date <date>, disposal_type <chr>, appl_status_code <dbl>,
    ## #   appl_status_date <chr>, tc <dbl>, gender <chr>, race <chr>,
    ## #   earliest_date <date>, latest_date <date>, tenure_days <dbl>
So we know this is the node at the centre of the bottom network
component (wg163 for this examiner). Recall from our summary statistics
earlier that examiner tenure ranged from roughly 340 to 6350. Note
examiner 72253 has a tenure of 6349(!) this provides a logical
explanation for why this node appears to be so important (at least by
degree): they’ve been around the longest and have had many more
opportunities to seek help. Note also that this examiner has the highest
betweenness score in the network, implying they are the important for
connecting disparate parts of the advice network.

``` r
applications[applications$examiner_id==84157,]
```

    ## # A tibble: 10,417 x 21
    ##    application_number filing_date examiner_name_last examiner_name_first
    ##    <chr>              <date>      <chr>              <chr>              
    ##  1 <NA>               NA          <NA>               <NA>               
    ##  2 09424416           2000-02-15  CHOI               LING SIU           
    ##  3 09462095           2000-01-12  CHOI               LING SIU           
    ##  4 09462103           2000-01-13  CHOI               LING SIU           
    ##  5 <NA>               NA          <NA>               <NA>               
    ##  6 09463436           2000-01-27  CHOI               LING SIU           
    ##  7 09463999           2000-02-22  CHOI               LING SIU           
    ##  8 <NA>               NA          <NA>               <NA>               
    ##  9 09478197           2000-01-05  CHOI               LING SIU           
    ## 10 09479424           2000-01-07  CHOI               LING SIU           
    ## # ... with 10,407 more rows, and 17 more variables: examiner_name_middle <chr>,
    ## #   examiner_id <dbl>, examiner_art_unit <dbl>, uspc_class <chr>,
    ## #   uspc_subclass <chr>, patent_number <chr>, patent_issue_date <date>,
    ## #   abandon_date <date>, disposal_type <chr>, appl_status_code <dbl>,
    ## #   appl_status_date <chr>, tc <dbl>, gender <chr>, race <chr>,
    ## #   earliest_date <date>, latest_date <date>, tenure_days <dbl>
…
